{
  "model": "StudentCourses",
  "title": "Students grades",
  "orderBy": "course/displayCode",
  "query": "programGroup($expand=groupType), studyProgramSpecialty($expand=locale), course($expand=instructor,gradeScale,courseCategory,courseSector,courseArea),gradeExam($expand=examPeriod,year,instructors($expand=instructor))",
  "groupProperties": [
    {
      "name": "courseType/name",
      "property": "courseTypeName",
      "title": "${param}",
      "label": "Students.CourseType"
    },
    {
      "name": "semester/alternateName",
      "default": true,
      "property": "semester",
      "title": "${param} Students.Semester",
      "label": "Students.Semester"
    },
    {
      "name": "programGroup/displayCode",
      "property": "programGroup",
      "title": "${param}",
      "label": "Students.ProgramGroup"
    },
    {
      "name": "gradeYear/alternateName",
      "property": "gradeYear",
      "title": "${param}",
      "label": "Students.GradeYear"
    },
    {
      "name": "course/courseCategory/name",
      "property": "courseCategoryName",
      "title": "${param}",
      "label": "StudentCourses.courseCategory"
    },
    {
      "name": "course/courseSector/name",
      "property": "courseSector",
      "title": "${param}",
      "label": "StudentCourses.courseSector"
    },
    {
      "name": "course/courseArea/name",
      "property": "courseArea",
      "title": "${param}",
      "label": "StudentCourses.courseArea"
    }
  ],
  "actions": [
    {
      "name": "editCourse",
      "type": "edit",
      "title": "Students.EditCourse",
      "identifier": "editCourse",
      "icon": "edit"
    }
  ],
  "aggregators": [
    {
      "name": "total-grade-included-courses",
      "label": "Students.TotalPassed"
    },
    {
      "name": "simple-grade-average",
      "label": "Students.SimpleGradeAverage"
    },
    {
      "name": "formatted-grade-average",
      "label": "Students.FormattedGradeAverage"
    },
    {
      "name": "passed-ects",
      "label": "Students.PassedECTS"
    }
  ],
  "postProcessors": [
    {
      "name": "combine-complex"
    },
    {
      "name": "combine-exam-period-data"
    }
  ],
  "columns": [
    {
      "name": "id",
      "property": "id",
      "hidden": true
    },
    {
      "name": "courseTitle",
      "property": "course",
      "title": "Students.Course",
      "type": "text",
      "variant": "primary",
      "length": "lg"
    },
    {
      "name": "course/displayCode",
      "property": "displayCode",
      "title": "Students.CourseDisplayCode"
    },
    {
      "name": "courseType/abbreviation",
      "property": "courseType",
      "title": "Students.Type"
    },
    {
      "name": "course/courseCategory/alternateName",
      "property": "courseCategory",
      "title": "StudentCourses.courseCategory"
    },
    {
      "name": "course/courseCategory/name",
      "property": "courseCategoryName",
      "label": "StudentCourses.courseCategory",
      "hidden": true
    },
    {
      "name": "courseType/name",
      "property": "courseTypeName",
      "title": "Students.Type",
      "hidden": true
    },
    {
      "name": "courseType/id",
      "property": "courseTypeId",
      "title": "Students.Type",
      "hidden": true
    },
    {
      "name": "gradeExam/year/alternateName",
      "property": "examPeriod",
      "title": "Students.Exam"
    },
    {
      "name": "gradeExam/examPeriod/alternateName",
      "property": "examPeriod",
      "hidden": true
    },
    {
      "name": "studyProgramSpecialty/abbreviation",
      "property": "specialty",
      "title": "Students.Specialty"
    },
    {
      "name": "programGroup/displayCode",
      "property": "programGroup",
      "title": "Students.ProgramGroup"
    },
    {
      "name": "calculateUnits",
      "property": "calculateUnits",
      "title": "Students.calculateUnits",
      "type": "boolean",
      "trueValue": "1"
    },
    {
      "name": "calculateGrade",
      "property": "calculateGrades",
      "title": "Students.calculateGrades",
      "type": "boolean",
      "trueValue": "1"
    },
    {
      "name": "registrationType",
      "property": "registrationType",
      "title": "Students.RegistrationType",
      "type": "boolean",
      "trueValue": "1",
      "variant": "checkOrDash"
    },
    {
      "name": "units",
      "property": "units",
      "title": "Students.Units"
    },
    {
      "name": "ects",
      "property": "ects",
      "title": "Students.Εcts"
    },
    {
      "name": "coefficient",
      "property": "coefficient",
      "title": "Students.Coefficient"
    },
    {
      "name": "formattedGrade",
      "property": "formattedGrade",
      "title": "Students.Grade",
      "variant": "redGreen",
      "condition": "isPassed",
      "length": "sm"
    },
    {
      "name": "grade",
      "property": "grade",
      "hidden": true
    },
    {
      "name": "semester/alternateName",
      "property": "semester",
      "title": "Students.Semester",
      "hidden": true
    },
    {
      "name": "isPassed",
      "property": "isPassed",
      "hidden": true
    },
    {
      "name": "courseStructureType/id",
      "property": "courseStructureType",
      "hidden": true
    },
    {
      "name": "course/gradeScale/scaleType",
      "property": "gradeScaleType",
      "hidden": true
    },
    {
      "name": "grade",
      "property": "grade",
      "hidden": true
    },
    {
      "name": "gradeYear/alternateName",
      "property": "gradeYear",
      "hidden": true
    },
    {
      "name": "course/courseSector/name",
      "property": "courseSector",
      "hidden": true
    },
    {
      "name": "course/courseArea/name",
      "property": "courseArea",
      "hidden": true
    }
  ]
}
