{
  "selectable": true,
    "columns": [
      {
        "name": "id",
        "title": "Settings.Attributes.id",
        "hidden": false
      },        {
        "name": "name",
        "title": "Settings.Attributes.name",
        "hidden": false
      },
      {
        "name": "id",
        "virtual": true,
        "formatter": "ButtonFormatter",
        "formatString":"(modal:edit)",
        "className": "text-center",
        "formatOptions": {
            "buttonContent": "<i class=\"far fa-edit text-indigo\"></i>",
            "buttonClass": "btn btn-default"
        }
      }
    ],
    "defaults": {
        "orderBy": "name"
      }
}
