{
  "title": "CourseExams",
  "model": "CourseExams",
  "searchExpression": "(indexof(name, '${text}') ge 0 or indexof(course/displayCode, '${text}') ge 0 or indexof(course/department/abbreviation, '${text}') ge 0 or indexof(course/department/name, '${text}') ge 0 or indexof(completedByUser/name, '${text}') ge 0 )",
  "columns": [
    {
      "name": "id",
      "property": "id",
      "formatter": "ActionLinkFormatter",
      "actions": [
        {
          "title": "Exams.Preview",
          "href": "#/exams/${id}/",
          "role": "preview"
        },
        {
          "title": "Exams.Edit",
          "href": "#/exams/${id}/edit",
          "role": "edit"
        },
        {
          "title": "Reports.Print",
          "href": "#/exams/${id}/dashboard/general/(modal:print)",
          "role": "action"
        }
      ]
    },
    {
      "name": "course/displayCode",
      "property": "displayCode",
      "title": "Exams.DisplayCode"
    },
    {
      "name": "name",
      "property": "title",
      "title": "Exams.CourseName"
    },
    {
      "name": "year/alternateName",
      "property": "year",
      "title": "Exams.Year"
    },
    {
      "name": "examPeriod/name",
      "property": "examPeriod",
      "title": "Exams.Period"
    },
    {
      "name": "numberOfGradedStudents",
      "property": "numberOfGradedStudents",
      "title": "Exams.NumberOfGradedStudents"
    },
    {
      "name": "status/alternateName",
      "property": "status",
      "title": "Exams.Status",
      "formatter": "TranslationFormatter",
      "formatString": "ExamStatus.${value.toLowerCase()}"
    },
    {
      "name": "dateCompleted",
      "property": "dateCompleted",
      "title": "Exams.DateCompleted",
      "formatter": "DateTimeFormatter",
      "formatString": "shortDate"
    },
    {
      "name": "completedByUser/name",
      "property": "completedByUser",
      "title": "Exams.CompletedByUser"
    },
    {
      "name": "Instructors",
      "property": "instructors",
      "virtual": true,
      "sortable": false,
      "title": "Exams.Instructors",
      "formatters": [
        {
          "formatter": "TemplateFormatter",
          "formatString": "${instructors.length ? instructors.map(x => x.instructor && (x.instructor.familyName + ' ' + x.instructor.givenName)).join(', ') : '-'}"
        }
      ]
    }
  ],
  "defaults": {
    "filter": "(course/department eq ${currentDepartment})",
    "orderBy": "year desc,examPeriod desc,name asc",
    "expand": "instructors($expand=instructor)"
  },
  "criteria": [
    {
      "name": "courseName",
      "filter": "(indexof(name, '${value}') ge 0)",
      "type": "text"
    },
    {
      "name": "displayCode",
      "filter": "(indexof(course/displayCode, '${value}') ge 0)",
      "type": "text"
    },
    {
      "name": "status",
      "filter": "(status/alternateName eq '${value}')",
      "type": "text"
    },
    {
      "name": "yearId",
      "filter": "(year/id eq '${value}')",
      "type": "text"
    },
    {
      "name": "examPeriod",
      "filter": "(examPeriod/name eq '${value}')",
      "type": "text"
    },
    {
      "name": "dateCompleted",
      "filter": "(dateCompleted eq '${value}')",
      "type": "text"
    },
    {
      "name": "pendingExams",
      "filter": "( (status/alternateName eq 'open') or (status/alternateName eq 'inprogress') )",
      "type": "text"
    },
    {
      "name": "currentYear",
      "filter": "(year eq '${currentYear}')",
      "type": "text"
    }
  ],
  "searches": [
    {
      "name": "AdvancedSearch.PreDefinedLists.pendingExams",
      "filter": {
        "pendingExams": true,
        "currentYear": true
      }
    },
    {
      "name": "AdvancedSearch.PreDefinedLists.currentExams",
      "filter": {
        "status": "inprogress",
        "currentYear": true
      }
    }
  ],
  "paths": [
    {
      "name": "Exams.CurrentYear",
      "show": true,
      "alternateName": "list/currentYear",
      "filter": {}
    },
    {
      "name": "Exams.All",
      "alternateName": "list/index",
      "show": true,
      "filter": {}
    },
    {
      "name": "Exams.Completed",
      "show": true,
      "alternateName": "list/completed",
      "filter": {}
    }
  ]
}
