{
    "components": [
      {
        "label": "Columns",
        "columns": [
          {
            "components": [
              {
                "label": "Exams.CourseName",
                "placeholder": "Exams.CourseNamePlaceholder",
                "spellcheck": true,
                "tableView": true,
                "validate": {
                  "unique": false,
                  "multiple": false
                },
                "key": "courseName",
                "type": "textfield",
                "input": true,
                "hideOnChildrenHidden": false
              }
            ],
            "width": 6,
            "offset": 0,
            "push": 0,
            "pull": 0
          },
          {
            "components": [
              {
                "label": "Exams.DisplayCode",
                "spellcheck": true,
                "tableView": true,
                "validate": {
                  "unique": false,
                  "multiple": false
                },
                "key": "displayCode",
                "type": "textfield",
                "input": true,
                "hideOnChildrenHidden": false
              }
            ],
            "width": 6,
            "offset": 0,
            "push": 0,
            "pull": 0
          }
        ],
        "tableView": false,
        "key": "department",
        "type": "columns",
        "input": false,
        "path": "columns"
      },
      {
        "label": "Columns",
        "columns": [
          {
            "components": [
              {
                "label": "Exams.Status",
                "widget": "choicesjs",
                "dataSrc": "url",
                "data": {
                  "url": "CourseExamStatuses",
                  "headers": []
                },
                "selectThreshold": 0.3,
                "validate": {
                  "unique": false,
                  "multiple": false
                },
                "template": "<span class='d-block pr-5 text-truncate'>{{ item.alternateName }}</span>",
                "key": "status",
                "valueProperty": "alternateName",
                "selectValues": "value",
                "type": "select",
                "input": true
              }
            ],
            "width": 4,
            "offset": 0,
            "push": 0,
            "pull": 0
          },
          {
            "components": [
              {
                "label": "Exams.Year",
                "widget": "choicesjs",
                "dataSrc": "url",
                "data": {
                  "url": "AcademicYears?$orderby=id desc",
                  "headers": []
                },
                "selectThreshold": 0.3,
                "validate": {
                  "unique": false,
                  "multiple": false
                },
                "template": "<span class='d-block pr-5 text-truncate'>{{ item.alternateName }}</span>",
                "key": "yearId",
                "valueProperty": "id",
                "selectValues": "value",
                "type": "select",
                "input": true,
                "hideOnChildrenHidden": false,
                "disableLimit": false,
                "lazyLoad": false
              }
            ],
            "width": 4,
            "offset": 0,
            "push": 0,
            "pull": 0
          },
          {
            "components": [
              {
                "label": "Exams.Period",
                "widget": "choicesjs",
                "dataSrc": "url",
                "data": {
                  "url": "ExamPeriods",
                  "headers": []
                },
                "selectThreshold": 0.3,
                "template": "<span class='d-block pr-5 text-truncate'>{{ item.name }}</span>",
                "key": "examPeriod",
                "valueProperty": "name",
                "selectValues": "value",
                "type": "select",
                "input": true,
                "hideOnChildrenHidden": false,
                "disableLimit": false,
                "lazyLoad": false
              }
            ],
            "width": 4,
            "offset": 0,
            "push": 0,
            "pull": 0
          }
        ],
        "tableView": false,
        "key": "columns1",
        "type": "columns",
        "input": false,
        "path": "columns1"
      }
    ]
  }
  