{
  "title": "StudentRequestActionsTypes.RequestDocumentActions",
  "model": "RequestDocumentActions",
  "searchExpression": "",
  "columns": [
    {
      "name": "id",
      "formatter": "ButtonFormatter",
      "formatString": "#/requests/${id}/",
      "className": "text-center",
      "formatOptions": {
        "buttonContent": "<i class=\"far fa-eye text-indigo\"></i>",
        "buttonClass": "btn btn-default"
      }
    },
    {
      "name": "object/name",
      "property": "object",
      "title": "Requests.DocumentTemplate"
    },
    {
      "name": "startTime",
      "property": "startTime",
      "title": "Requests.StartTime",
      "formatter": "DateTimeFormatter",
      "formatString": "shortDate"
    },
    {
      "name": "actionStatus/alternateName",
      "property": "actionStatus",
      "title": "Requests.ActionStatusTitle",
      "formatters": [
        {
          "formatter": "TranslationFormatter",
          "formatString": "ActionStatusTypes.${value}"
        },
        {
          "formatter": "NgClassFormatter",
          "formatOptions": {
            "ngClass": {
              "text-danger": "'${actionStatus}'==='CancelledActionStatus' || '${actionStatus}'==='FailedActionStatus'",
              "text-primary": "'${actionStatus}'==='ActiveActionStatus' || '${actionStatus}'==='PotentialActionStatus'",
              "text-success": "'${actionStatus}'==='CompletedActionStatus'"
            }
          }
        }
      ]
    },
    {
      "name": "result/documentCode",
      "property": "documentCode",
      "title": "Documents.DocumentCode",
      "hidden": true,
      "formatter": "TemplateFormatter",
      "formatString": "${documentCode}"
    },
    {
      "name": "result/published",
      "property": "published",
      "title": "Documents.Published",
      "formatter": "TrueFalseFormatter"
    },
    {
      "name": "result/id",
      "formatter": "ButtonFormatter",
      "property": "result",
      "className": "text-center",
      "title": "Requests.File",
      "formatOptions": {
        "buttonContent": "<i class=\"fas fa-2x fa-file-download text-indigo\"></i>",
        "buttonClass": "btn btn-default",
        "commands": [ "." ],
        "navigationExtras": {
          "replaceUrl": false,
          "queryParams": {
            "download": "${documentCode}"
          }
        }
      }
    },
    {
      "name": "object/reportTemplate/signReport",
      "property": "signReport",
      "title": "Documents.RequiredSignature",
      "hidden": true,
      "formatter": "TrueFalseFormatter"
    },
    {
      "name":"result/signed",
      "property": "signed",
      "title":"Requests.DigitalSignature",
      "formatters": [
        {
          "formatter": "TrueFalseFormatter"
        },
        {
          "formatter": "NgClassFormatter",
          "formatOptions": {
            "ngClass": {
              "text-success": "${signed}",
              "d-none": "${result==null}",
              "text-danger": "${result && !signed}"
            }
          }
        }
      ]
    },
    {
      "name": "result/url",
      "property": "resultUrl",
      "title": "Reports.Attributes.url",
      "hidden": true
    }
  ],
  "defaults": {
    "orderBy": "dateCreated desc"
  },
  "criteria": [
    {
      "name": "object",
      "filter": "(indexof(object/name, '${value}') ge 0)",
      "type": "text"
    },
    {
      "name": "studentName",
      "filter": "(indexof(student/person/familyName, '${value}') ge 0 or indexof(student/person/givenName, '${value}') ge 0)",
      "type": "text"
    },
    {
      "name": "studentStatus",
      "filter": "(student/studentStatus/alternateName eq '${value}')",
      "type": "text"
    },
    {
      "name": "studentIdentifier",
      "filter": "(indexof(student/studentIdentifier, '${value}') ge 0)",
      "type": "text"
    },
    {
      "name": "actionStatus",
      "filter": "(actionStatus/alternateName eq '${value}')",
      "type": "text"
    },
    {
      "name": "object",
      "filter": "(object/name eq '${value}')",
      "type": "text"
    },
    {
      "name": "result",
      "filter": "${value >=1 ? '(result ne null)': '(result eq null)'}",
      "type": "text",
      "title":  "Requests.RelatedFile"
    },
    {
      "name": "signed",
      "filter": "${value >= 1 ? '(result/signed eq 1)' : '(result/signed eq null or result/signed eq 0)'}",
      "type": "text"
    },
    {
      "name": "published",
      "filter": "${value >= 1 ? '(result/published eq 1)' : '(result/published eq null or result/published eq 0)'}",
      "type": "text"
    }
  ]
}
