{
  "title": "Students.Candidates",
  "model": "CandidateStudents",
  "searchExpression": "indexof(inscriptionNumber, '${text}') ge 0 or indexof(person/familyName, '${text}') ge 0 or indexof(person/givenName, '${text}') ge 0 or indexof(user/name, '${text}') ge 0 or indexof(person/email, '${text}') ge 0 or indexof(person/mobilePhone, '${text}') ge 0 or indexof(person/alternateEmail, '${text}') ge 0",
  "selectable": true,
  "multipleSelect": true,
  "columns": [
    {
      "name": "id",
      "property": "id",
      "formatter": "ButtonFormatter",
      "formatString": "#/candidate-students/list/current/(modal:${id}/edit)",
      "className": "text-center",
      "formatOptions": {
        "buttonContent": "<i class=\"far fa-edit text-indigo\"></i>",
        "buttonClass": "btn btn-default"
      }
    },
    {
      "name": "studyProgram",
      "property": "studyProgramId",
      "hidden": true
    },
    {
      "name": "inscriptionNumber",
      "property": "inscriptionNumber",
      "title": "Candidates.InscriptionNumber"
    },
    {
      "name": "inscriptionMode/name",
      "property": "inscriptionMode",
      "title": "Students.InscriptionMode"
    },
    {
      "name": "person/familyName",
      "property": "familyName",
      "title": "Students.fullName",
      "formatter": "TemplateFormatter",
      "formatString": "${familyName} ${givenName}"
    },
    {
      "name": "person/givenName",
      "property": "givenName",
      "title": "Students.GivenName",
      "hidden": true
    },
    {
      "name": "person/fatherName",
      "property": "fatherName",
      "title": "Students.FatherName"
    },
    {
      "name": "person/motherName",
      "property": "motherName",
      "title": "Students.MotherName"
    },
    {
      "name": "department/name",
      "property": "departmentName",
      "title": "Students.Department"
    },
    {
      "name": "inscriptionPoints",
      "property": "inscriptionPoints",
      "title": "Students.InscriptionPoints",
      "hidden": true
    },
    {
      "name": "inscriptionIndex",
      "property": "inscriptionIndex",
      "title": "Students.InscriptionIndex",
      "hidden": true
    },
    {
      "name": "studentStatus/alternateName",
      "property": "studentStatus",
      "title": "Students.studentStatus",
      "hidden": true
    },
    {
      "name": "person/email",
      "property": "email",
      "title": "Students.Email"
    },
    {
      "name": "person/alternateEmail",
      "property": "alternateEmail",
      "title": "Students.AlternateEmail"
    },
    {
      "name": "person/mobilePhone",
      "property": "mobilePhone",
      "title": "Students.MobilePhone"
    },
    {
      "name": "user/name",
      "property": "userName",
      "title": "Students.UserName"
    },
    {
      "name": "actions/id",
      "property": "action",
      "title": "Actions",
      "hidden": true
    },
    {
      "name": "student/id",
      "property": "studentId",
      "title": "Students.StudentTitleSingular",
      "formatters": [
        {
          "formatter": "ButtonFormatter",
          "formatOptions": {
            "buttonContent": "<i class=\"far fa-eye text-indigo\"></i>",
            "buttonClass": "btn btn-default"
          },
          "formatString": "#/students/${studentId}/dashboard/overview"
        },
        {
          "formatter": "NgClassFormatter",
          "formatOptions": {
            "ngClass": {
              "text-center": "${studentId !=null}",
              "d-none": "${studentId == null}"
            }
          }
        }
      ]
    }
  ],
  "criteria": [
    {
      "name": "inscriptionNumber",
      "filter": "(inscriptionNumber eq '${value}')",
      "type": "text"
    },
    {
      "name": "studentName",
      "filter": "(indexof(person/familyName, '${value}') ge 0 or indexof(person/givenName, '${value}') ge 0)",
      "type": "text"
    },
    {
      "name": "username",
      "filter": "(indexof(user/name, '${value}') ge 0)",
      "type": "text"
    },
    {
      "name": "department",
      "filter": "(department/id eq '${value}')",
      "type": "text"
    },
    {
      "name": "inscriptionMode",
      "filter": "(inscriptionMode/id eq '${value}')",
      "type": "text"
    },
    {
      "name": "inscriptionYear",
      "filter": "(inscriptionYear/id eq '${value}')",
      "type": "text"
    },
    {
      "name": "inscriptionPeriod",
      "filter": "(inscriptionPeriod/id eq '${value}')",
      "type": "text"
    },
    {
      "name": "semester",
      "filter": "(semester eq '${value}')",
      "type": "text"
    },
    {
      "name": "hasAccount",
      "filter": "${value >=1 ? '(user ne null)': '(user eq null)'}",
      "type": "text"
    },
    {
      "name": "hasAction",
      "filter": "${value >=1 ? '(actions/id ne null)': '(actions/id eq null)'}",
      "type": "text"
    },
    {
      "name": "hasStudent",
      "filter": "${value >=1 ? '(student/id ne null)': '(student/id eq null)'}",
      "type": "text"
    }
  ],
  "defaults": {
    "filter": "(inscriptionYear eq ${currentYear})"
  },
  "paths": [
    {
      "name": "Candidates.CurrentYear",
      "show": true,
      "alternateName": "list/current",
      "filter": {
      }
    },
    {
      "name": "Students.All",
      "show": true,
      "alternateName": "list/index",
      "filter": {
      }
    }
  ]
}
