{
  "model": "StudentProgramGroups",
  "title": "Study Program Group",
  "settings": {
    "i18n": {
      "el": {
        "Course": "Μάθημα",
        "Type": "Τύπος",
        "Set the course type of this program group.": "Ορίστε τον τύπο μαθήματος της ομάδας",
        "Set program group units. Program group units will be used while validating degree requirements.": "Ορίστε τις διδακτικές μονάδες. Οι διδακτικές μονάδες μιας ομάδας θα χρησιμοποιηθούν κατά τον έλεγχο προϋποθέσεων λήψης πτυχίου.",
        "Set the semester of this program group.": "Ορίστε το εξάμηνό της ομάδας.",
        "Set course coefficient. This attribute is going to used while calculating degree grade.": "Ορίστε τον συντελεστή της ομάδας. Το στοιχείο αυτό θα χρησιμοποιηθεί κατά τον υπολογισμό του βαθμού πτυχίου.",
        "Calculated in degree": "Υπολογίζεται στη λήψη πτυχίου",
        "Calculated in degree grade": "Υπολογίζεται στο βαθμό του πτυχίου",
        "Set the number of units the program group offers if passed.": "Ορίστε τον αριθμό των διδακτικών μονάδων που προσφέρει η ομάδα εάν περαστεί.",
        "Set the number of ECTS the program group offers if passed.": "Ορίστε τον αριθμό των ECTS που προσφέρει η ομάδα εάν περαστεί.",
        "Group grade is calculated": "Υπολογίζεται ο ομαδικός βαθμός"
      }
    }
  },
  "components": [
    {
      "label": "Columns",
      "columns": [
        {
          "components": [
            {
              "label": "Name",
              "labelPosition": "top",
              "widget": {
                "type": "input"
              },
              "key": "programGroup.name",
              "type": "textfield",
              "input": false,
              "disabled": true
            }
          ],
          "width": 12
        },
        {
          "components": [
            {
              "label": "Min Courses",
              "labelPosition": "top",
              "widget": {
                "type": "input"
              },
              "validate": {
                "integer": true,
                "min": 1,
                "max": 12
              },
              "key": "minCourses",
              "type": "number",
              "input": true,
              "protected": true,
              "customConditional": "show = data.programGroup.groupType && data.programGroup.groupType == 2"
            }
          ],
          "width": 6
        },
        {
          "components": [
            {
              "label": "Max Courses",
              "labelPosition": "top",
              "widget": {
                "type": "input"
              },
              "validate": {
                "integer": true,
                "min": 1,
                "max": 12
              },
              "key": "maxCourses",
              "type": "number",
              "input": true,
              "protected": true,
              "customConditional": "show = data.programGroup.groupType && data.programGroup.groupType == 2"
            }
          ],
          "width": 6
        }
      ],
      "key": "columns",
      "type": "columns",
      "input": false,
      "tableView": false
    },
    {
      "optionsLabelPosition": "right",
      "inline": true,
      "tableView": false,
      "label": "Group grade is calculated",
      "customClass":"mt-1 mb-5",
      "defaultValue": 0,
      "values": [
        {
          "label": "Yes",
          "value": 1
        },
        {
          "label": "No",
          "value": 0
        }
      ],
      "key": "calculateGroupGrade",
      "type": "radio",
      "input": true,
      "customConditional": "show = data.programGroup.groupType && data.programGroup.groupType == 2"
    },
    {
      "label": "Columns",
      "columns": [
          {
            "components": [
              {
                "clearOnHide": true,
                "label": "Units",
                "mask": false,
                "spellcheck": true,
                "tableView": false,
                "delimiter": false,
                "requireDecimal": false,
                "inputFormat": "plain",
                "validate": {
                  "required": true,
                  "min": 0
                },
                "key": "units",
                "type": "number",
                "input": true,
                "hideOnChildrenHidden": false,
                "description": "Set program group units. Program group units will be used while validating degree requirements."
              }
            ],
            "width": 6
          },
          {
            "components": [
              {
                "clearOnHide": true,
                "label": "Coefficient",
                "mask": false,
                "spellcheck": true,
                "tableView": false,
                "delimiter": false,
                "requireDecimal": false,
                "inputFormat": "plain",
                "validate": {
                  "required": true,
                  "integer": false
                },
                "key": "coefficient",
                "type": "number",
                "input": true,
                "hideOnChildrenHidden": false,
                "description": "Set course coefficient. This attribute is going to used while calculating degree grade.",
                "calculateValue" : "value = value;"
              }
            ],
            "width": 6
          },
          {
            "components": [
              {
                "clearOnHide": true,
                "label": "Type",
                "labelPosition": "top",
                "widget": "choicesjs",
                "dataSrc": "url",
                "data": {
                  "url": "CourseTypes?$orderby=name",
                  "headers": []
                },
                "validate": {
                  "required": true
                },
                "template": "<span class='col-4 text-truncate'>{{ item.name }}</span>",
                "selectValues": "value",
                "key": "courseType",
                "dataType": "object",
                "idPath": "id",
                "searchEnabled": false,
                "type": "select",
                "input": true,
                "lazyLoad": false,
                "description": "Set the course type of this program group."
              }
            ],
            "width": 6
          },
          {
            "components": [
              {
                "clearOnHide": true,
                "label": "Semester",
                "labelPosition": "top",
                "widget": "choicesjs",
                "dataSrc": "url",
                "data": {
                  "url": "Semesters?$orderby=id",
                  "headers": []
                },
                "validate": {
                  "required": true
                },
                "template": "<span class='col-4 text-truncate'>{{ item.name }}</span>",
                "selectValues": "value",
                "key": "semester",
                "dataType": "object",
                "idPath": "id",
                "searchEnabled": false,
                "type": "select",
                "input": true,
                "lazyLoad": false
              }
            ],
            "width": 6
          },
          {
            "components": [
              {
                "clearOnHide": true,
                "label": "ECTS",
                "labelPosition": "top",
                "widget": {
                  "type": "input"
                },
                "validate": {
                  "required": true,
                  "min": 0
                },
                "key": "ects",
                "type": "number",
                "input": true,
                "description": "Set the number of ECTS the program group offers if passed."
              }
            ],
            "width": 6
          },
          {
            "components": [
              {
                "clearOnHide": true,
                "label": "Calculated in degree",
                "tableView": true,
                "key": "calculateUnits",
                "type": "checkbox",
                "input": true,
                "defaultValue": false,
                "customClass": "my-2 py-2"
              }
            ],
            "width": 12
          },
          {
            "components": [
              {
                "clearOnHide": true,
                "label": "Calculated in degree grade",
                "tableView": true,
                "key": "calculateGrade",
                "type": "checkbox",
                "input": true,
                "defaultValue": false
              }
            ],
            "width": 12
          }
      ],
      "key": "columns",
      "type": "columns",
      "input": false,
      "tableView": false,
      "customConditional": "show = data.calculateGroupGrade == 1;"
    },
    {
      "type": "button",
      "label": "Submit",
      "key": "submit",
      "disableOnInvalid": true,
      "input": true
    }
  ]
}
