{
  "model": "StudentDeclareActions",
  "settings": {
    "i18n": {
      "el": {
        "Declaration Information": "Στοιχεία ανακήρυξης",
        "Graduation Date": "Ημερομηνία ορκωμοσίας",
        "Declaration Date": "Ημερομηνία ανακήρυξης",
        "Declaration Period": "Ακαδημαϊκή περίοδος ανακήρυξης",
        "Declaration Year": "Ακαδημαϊκό έτος ανακήρυξης",
        "Graduation Grade": "Βαθμός πτυχίου",
        "Graduation Grade Scale": "Κλίμακα βαθμού πτυχίου",
        "Graduation Grade Written In Words": "Βαθμός πτυχίου ολογράφως",
        "Last Obligation Date": "Ημερομηνία τελευταίας υποχρέωσης"
      }
    }
  },
  "components": [
    {
      "legend": "Declaration Information",
      "key": "fieldset",
      "type": "fieldset",
      "input": false,
      "components": [
        {
          "columns": [
            {
              "components": [
                {
                  "label": "Declaration Date",
                  "labelPosition": "top",
                  "enableTime": false,
                  "widget": {
                    "type": "input"
                  },
                  "key": "declaredDate",
                  "validate": {
                    "required": true
                  },
                  "type": "datetime",
                  "format": "dd/MM/yyyy",
                  "input": true
                }
              ],
              "width": 4,
              "offset": 0,
              "push": 0,
              "pull": 0
            },
            {
              "components": [
                {
                  "label": "Declaration Year",
                  "labelPosition": "top",
                  "key": "declaredYear",
                  "validate": {
                    "required": true
                  },
                  "type": "select",
                  "dataSrc": "url",
                  "data": {
                    "url": "AcademicYears/?$top={{limit}}&$skip={{skip}}&$orderby=id desc",
                    "headers": []
                  },
                  "limit": 20,
                  "template": "{{ item.alternateName }}",
                  "input": true,
                  "lazyLoad": true,
                  "selectValues": "value",
                  "widget": "choicesjs"
                }
              ],
              "width": 4,
              "offset": 0,
              "push": 0,
              "pull": 0
            },
            {
              "components": [
                {
                  "label": "Declaration Period",
                  "labelPosition": "top",
                  "widget": "choicesjs",
                  "dataSrc": "url",
                  "data": {
                    "url": "AcademicPeriods",
                    "headers": []
                  },
                  "template": "{{ item.name }}",
                  "selectValues": "value",
                  "key": "declaredPeriod",
                  "validate": {
                    "required": true
                  },
                  "type": "select",
                  "input": true
                }
              ],
              "width": 4,
              "offset": 0,
              "push": 0,
              "pull": 0
            }
          ],
          "customClass": "text-dark",
          "type": "columns",
          "input": false
        },
        {
          "columns": [
            {
              "components": [
                {
                  "label": "Graduation Date",
                  "labelPosition": "top",
                  "enableTime": false,
                  "widget": {
                    "type": "input"
                  },
                  "key": "graduationDate",
                  "validate": {
                    "required": false
                  },
                  "type": "datetime",
                  "format": "dd/MM/yyyy",
                  "input": true
                }
              ],
              "width": 4,
              "offset": 0,
              "push": 0,
              "pull": 0
            },
            {
              "components": [
                {
                  "label": "Graduation Grade",
                  "key": "graduationGradeAdjusted",
                  "labelPosition": "top",
                  "widget": {
                    "type": "input"
                  },
                  "validate": {
                    "required": false
                  },
                  "type": "textfield",
                  "input": true,
                  "disabled": true
                }
              ],
              "width": 4,
              "offset": 0,
              "push": 0,
              "pull": 0
            },
            {
              "components": [
                {
                  "label": "Graduation Grade Scale",
                  "labelPosition": "top",
                  "widget": "choicesjs",
                  "searchEnabled": true,
                  "dataSrc": "url",
                  "data": {
                    "values": [],
                    "url": "GradeScales?$top={{limit}}&$skip={{skip}}&$select=id,name"
                  },
                  "limit": 20,
                  "validate": {
                    "required": false
                  },
                  "disabled": true,
                  "selectThreshold": 0.3,
                  "lazyLoad": true,
                  "template": "{{ item.name }}",
                  "selectValues": "value",
                  "key": "graduationGradeScale",
                  "dataType": "object",
                  "idPath": "id",
                  "type": "select",
                  "input": true
                }
              ],
              "width": 4,
              "offset": 0,
              "push": 0,
              "pull": 0
            }
          ],
          "customClass": "text-dark",
          "hideLabel": true,
          "type": "columns",
          "input": false
        },
        {
          "columns": [
            {
              "components": [
                {
                  "label": "Graduation Grade Written In Words",
                  "key": "graduationGradeWrittenInWords",
                  "labelPosition": "top",
                  "widget": {
                    "type": "input"
                  },
                  "validate": {
                    "required": false
                  },
                  "type": "textfield",
                  "input": true,
                  "disabled": true
                }
              ],
              "width": 12,
              "offset": 0,
              "push": 0,
              "pull": 0
            },
            {
              "components": [
                {
                  "label": "Graduation Title",
                  "key": "graduationTitle",
                  "labelPosition": "top",
                  "widget": {
                    "type": "input"
                  },
                  "validate": {
                    "required": false
                  },
                  "type": "textfield",
                  "input": true,
                  "disabled": false
                }
              ],
              "width": 12,
              "offset": 0,
              "push": 0,
              "pull": 0
            },
            {
              "components": [
                {
                  "label": "Last Obligation Date",
                  "labelPosition": "top",
                  "enableTime": false,
                  "widget": {
                    "type": "input"
                  },
                  "key": "lastObligationDate",
                  "validate": {
                    "required": false
                  },
                  "type": "datetime",
                  "format": "dd/MM/yyyy",
                  "input": true
                }
              ],
              "width": 4,
              "offset": 0,
              "push": 0,
              "pull": 0
            }
          ],
          "customClass": "text-dark",
          "hideLabel": true,
          "type": "columns",
          "input": false
        }
      ]
    }
  ]
}
