{
  "settings": {
    "i18n": {
      "el": {
        "Study program": "Πρόγραμμα σπουδών",
        "Inscription year": "Έτος εισαγωγής",
        "Inscription period": "Περίοδος εισαγωγής",
        "Personal information": "Προσωπικά στοιχεία",
        "First name": "Όνομα",
        "Surname": "Επώνυμο",
        "Inscription number": "Αριθμός υποψηφίου"
      }
    }
  },
  "components": [
    {
      "legend": "Study program",
      "key": "fieldset",
      "type": "fieldset",
      "label": "Personal data",
      "input": false,
      "tableView": false,
      "components": [
        {
          "label": "Columns",
          "columns": [
            {
              "components": [
                {
                  "label": "Study program",
                  "tableView": true,
                  "key": "studyProgram.name",
                  "type": "textfield",
                  "input": true,
                  "hideOnChildrenHidden": false,
                  "disabled": true
                }
              ],
              "width": 12,
              "offset": 0,
              "push": 0,
              "pull": 0
            },

            {
              "components": [
                {
                  "label": "Inscription year",
                  "tableView": true,
                  "key": "inscriptionYear.name",
                  "type": "textfield",
                  "input": true,
                  "hideOnChildrenHidden": false,
                  "disabled": true
                }
              ],
              "width": 6,
              "offset": 0,
              "push": 0,
              "pull": 0
            },
            {
              "components": [
                {
                  "label": "Inscription period",
                  "tableView": true,
                  "key": "inscriptionPeriod.name",
                  "type": "textfield",
                  "input": true,
                  "hideOnChildrenHidden": false,
                  "disabled": true
                }
              ],
              "width": 6,
              "offset": 0,
              "push": 0,
              "pull": 0
            }
          ],
          "key": "columns",
          "type": "columns",
          "input": false,
          "tableView": false
        }
      ]
    },
    {
      "legend": "Personal information",
      "key": "fieldset",
      "type": "fieldset",
      "label": "Personal data",
      "input": false,
      "tableView": false,
      "components": [
        {
          "label": "Columns",
          "columns": [
            {
              "components": [
                {
                  "label": "First name",
                  "tableView": true,
                  "validate": {
                    "required": true
                  },
                  "key": "candidate.person.givenName",
                  "type": "textfield",
                  "input": true,
                  "hideOnChildrenHidden": false,
                  "disabled": true
                }
              ],
              "width": 6,
              "offset": 0,
              "push": 0,
              "pull": 0,
              "size": "md"
            },
            {
              "components": [
                {
                  "label": "Surname",
                  "tableView": true,
                  "validate": {
                    "required": true
                  },
                  "key": "candidate.person.familyName",
                  "type": "textfield",
                  "input": true,
                  "hideOnChildrenHidden": false,
                  "disabled": true
                }
              ],
              "width": 6,
              "offset": 0,
              "push": 0,
              "pull": 0,
              "size": "md"
            },
            {
              "components": [
                {
                  "label": "Email",
                  "tableView": true,
                  "key": "candidate.person.email",
                  "type": "textfield",
                  "input": true,
                  "disabled": true,
                  "hideOnChildrenHidden": false
                }
              ],
              "width": 6,
              "offset": 0,
              "push": 0,
              "pull": 0,
              "size": "md"
            },
            {
              "components": [
                {
                  "label": "Inscription number",
                  "tableView": true,
                  "key": "candidate.inscriptionNumber",
                  "type": "textfield",
                  "input": true,
                  "disabled": true,
                  "hideOnChildrenHidden": false
                }
              ],
              "width": 6,
              "offset": 0,
              "push": 0,
              "pull": 0,
              "size": "md"
            }
          ],
          "key": "columns",
          "type": "columns",
          "input": false,
          "tableView": false
        }
      ]
    }

  ]
}
